{
  "id": "24393cb0-f308-4c36-9142-4e68256156ba",
  "name": "building_stock",
  "title": "Building stock",
  "profile": "tabular-data-resource",
  "description": "Data show building stock composition in the EU28 at NUTS0 level.",
  "version": "0.1",
  "created": "2017-09-18",
  "keywords": [
    "building",
    "Europe",
    "EU28"
  ],
  "licenses": [
    {
      "name": "CC-BY-4.0",
      "title": "Creative Commons Attribution 4.0",
      "path": "https://creativecommons.org/licenses/by/4.0/"
    }
  ],
  "sources": [
    {
      "title": "See comments in the xlsx file.",
      "path": "data/building_stock.xlsx"
    }
  ],
  "contributors": [
    {
      "title": "Simon Pezzutto",
      "email": "Simon.Pezzutto@eurac.edu",
      "role": "author",
      "organization": "Eurac Research"
    },
    {
      "title": "Stefano Zambotti",
      "email": "Stefano.Zambottio@eurac.edu",
      "role": "author",
      "organization": "Eurac Research"
    },
    {
      "title": "Silvia Croce",
      "email": "Silvia.Croce@eurac.edu",
      "role": "author",
      "organization": "Eurac Research"
    },
    {
      "title": "Pietro Zambelli",
      "email": "Pietro.Zambelli@eurac.edu",
      "role": "author",
      "organization": "Eurac Research"
    }
  ],
  "resources": [
    {
      "profile": "tabular-data-resource",
      "name": "building_stock",
      "title": "Building stock",
      "path": "data/building_stock.csv",
      "description": "The data show the building stock composition at EU28 scale.",
      "format": "csv",
      "mediatype": "text/csv",
      "encoding": "utf-8",
      "spatial_resolution": "NUTS_0",
      "spatial_key_field": "country_code",
      "dialect": {
        "delimiter": "|",
        "doubleQuote": true,
        "lineTerminator": "\n",
        "header": true
      },
      "schema": {
        "fields": [
          {
            "name": "country",
            "description": "Country name",
            "type": "string",
            "unit": ""
          },
          {
            "name": "country_code",
            "description": "Country code [ISO 3166-1 alpha-2](https://en.wikipedia.org/wiki/ISO_3166-1_alpha-2)",
            "type": "string",
            "unit": ""
          },
          {
            "name": "sector",
            "description": "Main sectors: residential, service",
            "type": "string",
            "unit": ""
          },
          {
            "name": "subsector",
            "description": "Main subsectors: Total, Single family- Terraced houses, Multifamily houses, Appartment blocks (> 8 floors), Offices, Trade, Education, Hospital, Hotel, Hotels and Restaurants, Other non-residential buildings",
            "type": "string",
            "unit": ""
          },
          {
            "name": "btype",
            "description": "Building type: Total, Single family- Terraced houses, Multifamily houses, Appartment blocks (> 8 floors), Offices, Trade, Education, Hospital, Hotel, Hotels and Restaurants, Other non-residential buildings",
            "type": "string",
            "unit": ""
          },
          {
            "name": "bage",
            "description": "Building epoch of construction: Before 1945, 1945 - 1969, 1970 - 1979, 1980 - 1989, 1990 - 1999, 2000 - 2010, Post 2010",
            "type": "string",
            "unit": ""
          },
          {
            "name": "topic",
            "description": "Other building features: Area, Technologies, Construction features, Energy demand, Total energy demand, Total energy consumption",
            "type": "string",
            "unit": ""
          },
          {
            "name": "feature",
            "description": "",
            "type": "string",
            "unit": ""
          },
          {
            "name": "type",
            "description": "",
            "type": "string",
            "unit": ""
          },
          {
            "name": "detail",
            "description": "Other building features: Number of dwellings/units[Mil.], Space heating, Space cooling, Domestic hot water (DHW), Covered area: constructed [Mm²], Covered area: heated [Mm²], Covered area: cooled [Mm²], Walls (u-values, construction methodology, construction materials), Windows (u-values, construction methodology, construction materials) As comment: single glass, double glass and box type window, Roof (u-values, construction methodology, construction materials) As comment: flat roof or saddle roof, Floor (u-values, construction methodology, construction materials), Space heating [kWh/m² year], Space cooling [kWh/m² year], Domestic hot water (DHW) [kWh/m² year], Thermal [TWh/year], Number of buildings[Mil.]",
            "type": "string",
            "unit": ""
          },
          {
            "name": "value",
            "type": "number",
            "unit": ""
          },
          {
            "name": "unit",
            "type": "string",
            "unit": "unit"
          }
        ]
      }
    }
  ]
}
